/*  Name: Exp_ODI_Framework
/*  Description: Setup the ODI framework required tables, run in EXPR_INTEGRATION schema
/* Modification History: 
/* Date      Name                Modification Description
/* --------  -----------------   -------------------------------------
/* 2014-09-03 Sajan Khadka		DDL for EXP_ODI_PATTERN table, required to build ODI framework
/* 
/**********************************************************************/

 drop table exp_odi_pattern;
 
CREATE TABLE EXP_ODI_PATTERN
 (PATTERN_TYPE VARCHAR2(3) NOT NULL
 ,DESCRIPTION VARCHAR2(200)
 ,LAST_UPDATE_ID VARCHAR2(80)
 ,LAST_UPDATE_DATETIME DATE
 ,CONSTRAINT exp_odi_pattern_pk PRIMARY KEY (PATTERN_TYPE) 
 )
 INITRANS 6
 STORAGE
 (
   FREELISTS 6
 ); 